{
	"indexstart": 0,
	"print": "print()",
	"commandend": "\\n",
	"logicops": ["and", "or", "not"],
	"exponent": "**",
	"codeblock": "if cond:\n    code",
	"whitspace": true,
	"vardef": "x=1",
	"funcdef": "def foo(arg):",
	"loops": ["while", "for x in y … else"],
	"body": null,
	"str2int": "int()",
	"strconcat": "+",
	"import": "import",
	"bools": {
		"True": "True == 1",
		"False": "Flase == 0"
	},
	"comments": ["# to end of line"]
}
